matu_matf_matc – Diagnostico Poblacional
…
Extraemos las especies de la Bromeliaceae

Bromeliaceae=Clonal_Species %>% 
  filter(Family == "Bromeliaceae") %>% # fpara la familia de bromelias
  select(mat, SpeciesAuthor, Family, clonality) %>% # seleccionar las columnas de interés
  arrange(desc(clonality)) # ordenar por la columna de clonación

Bromeliaceae

A COM(P)ADRE database ('CompadreDB') object with ?? SPECIES and 49 MATRICES.

# A tibble: 49 × 4
   mat        SpeciesAuthor           Family       clonality
   <list>     <chr>                   <chr>            <dbl>
 1 <CompdrMt> Tillandsia_brachycaulos Bromeliaceae      5.32
 2 <CompdrMt> Tillandsia_brachycaulos Bromeliaceae      5.04
 3 <CompdrMt> Tillandsia_brachycaulos Bromeliaceae      4.77
 4 <CompdrMt> Tillandsia_brachycaulos Bromeliaceae      3.94
 5 <CompdrMt> Aechmea_nudicaulis      Bromeliaceae      1.39
 6 <CompdrMt> Aechmea_nudicaulis      Bromeliaceae      1.26
 7 <CompdrMt> Aechmea_nudicaulis      Bromeliaceae      1.21
 8 <CompdrMt> Aechmea_nudicaulis      Bromeliaceae      1.20
 9 <CompdrMt> Aechmea_nudicaulis      Bromeliaceae      1.13
10 <CompdrMt> Aechmea_nudicaulis      Bromeliaceae      1.10
# ℹ 39 more rows

*** FINISH THIS SECTION**

compadre %>% 
  filter(clonality > 0) %>% # filtrar para aquellos con matC no nulo
  filter(SpeciesAuthor == "Aechmea_nudicaulis") %>%  # para 
  arrange(desc(clonality))

A COM(P)ADRE database ('CompadreDB') object with 1 SPECIES and 36 MATRICES.

# A tibble: 36 × 60
   mat        MatrixID SpeciesAuthor   SpeciesAccepted CommonName Kingdom Phylum
   <list>        <int> <chr>           <chr>           <chr>      <chr>   <chr> 
 1 <CompdrMt>   241401 Aechmea_nudica… Aechmea nudica… Nurse bro… Plantae Magno…
 2 <CompdrMt>   241384 Aechmea_nudica… Aechmea nudica… Nurse bro… Plantae Magno…
 3 <CompdrMt>   241394 Aechmea_nudica… Aechmea nudica… Nurse bro… Plantae Magno…
 4 <CompdrMt>   241386 Aechmea_nudica… Aechmea nudica… Nurse bro… Plantae Magno…
 5 <CompdrMt>   241398 Aechmea_nudica… Aechmea nudica… Nurse bro… Plantae Magno…
 6 <CompdrMt>   241392 Aechmea_nudica… Aechmea nudica… Nurse bro… Plantae Magno…
 7 <CompdrMt>   241409 Aechmea_nudica… Aechmea nudica… Nurse bro… Plantae Magno…
 8 <CompdrMt>   241407 Aechmea_nudica… Aechmea nudica… Nurse bro… Plantae Magno…
 9 <CompdrMt>   241380 Aechmea_nudica… Aechmea nudica… Nurse bro… Plantae Magno…
10 <CompdrMt>   241378 Aechmea_nudica… Aechmea nudica… Nurse bro… Plantae Magno…
# ℹ 26 more rows
# ℹ 53 more variables: Class <chr>, Order <chr>, Family <chr>, Genus <chr>,
#   Species <chr>, Infraspecies <chr>, InfraspeciesType <chr>,
#   OrganismType <chr>, DicotMonoc <chr>, AngioGymno <chr>, Authors <chr>,
#   Journal <chr>, SourceType <chr>, OtherType <chr>, YearPublication <chr>,
#   DOI_ISBN <chr>, AdditionalSource <chr>, StudyDuration <chr>,
#   StudyStart <chr>, StudyEnd <chr>, ProjectionInterval <chr>, …
…
