compadre_orchids – Diagnostico Poblacional
…
Para filtrar un genero específico se puede usar el siguiente código.

Aquí seleccionamos todas las matrices del genero Epipactis.

Nota que hay 59 filas, que corresponde típicamente a 59 matrices de diferentes poblaciones, tiempo o un análisis teóricos.

This shows that the species added Epidendrum xanthinum is not yet included in the data base

Epi = TodasSp %>% 
  filter(Genus %in% c("Epipactis")) # Filtrar la información de *Epipactis* en la base de datos.
Epi # Nota que en el genero *Epipactis*, tenemos 51 fila, pero todas son de la misma especie de dos estudios distintos. 

A COM(P)ADRE database ('CompadreDB') object with 1 SPECIES and 51 MATRICES.

# A tibble: 51 × 59
   mat        MatrixID SpeciesAuthor   SpeciesAccepted CommonName Kingdom Phylum
   <list>        <int> <chr>           <chr>           <chr>      <chr>   <chr> 
 1 <CompdrMt>   238565 Epipactis_atro… Epipactis atro… Darkred h… Plantae Trach…
 2 <CompdrMt>   238566 Epipactis_atro… Epipactis atro… Darkred h… Plantae Trach…
 3 <CompdrMt>   238568 Epipactis_atro… Epipactis atro… Darkred h… Plantae Trach…
 4 <CompdrMt>   238569 Epipactis_atro… Epipactis atro… Darkred h… Plantae Trach…
 5 <CompdrMt>   238570 Epipactis_atro… Epipactis atro… Darkred h… Plantae Trach…
 6 <CompdrMt>   238574 Epipactis_atro… Epipactis atro… Darkred h… Plantae Trach…
 7 <CompdrMt>   238575 Epipactis_atro… Epipactis atro… Darkred h… Plantae Trach…
 8 <CompdrMt>   238576 Epipactis_atro… Epipactis atro… Darkred h… Plantae Trach…
 9 <CompdrMt>   242965 Epipactis_atro… Epipactis atro… Darkred h… Plantae Magno…
10 <CompdrMt>   242966 Epipactis_atro… Epipactis atro… Darkred h… Plantae Magno…
# ℹ 41 more rows
# ℹ 52 more variables: Class <chr>, Order <chr>, Family <chr>, Genus <chr>,
#   Species <chr>, Infraspecies <chr>, InfraspeciesType <chr>,
#   OrganismType <chr>, DicotMonoc <chr>, AngioGymno <chr>, Authors <chr>,
#   Journal <chr>, SourceType <chr>, OtherType <chr>, YearPublication <chr>,
#   DOI_ISBN <chr>, AdditionalSource <chr>, StudyDuration <chr>,
#   StudyStart <chr>, StudyEnd <chr>, ProjectionInterval <chr>, …
…
dim(index_O)

[1] 647  59

La fuente de la información

Para saber cuantos especies distintas y los manuscritos asociado a los estudios. En este caso los de esas 53 fuentes de información publicada, revisada por pares, tesis o informes técnicos. Algunas especies fueron estudiada y publicada en más de un manuscrito. Nota que las 9 primeras filas corresponde a 9 especies de Caladenia publicado en el mismo articulo. Se termina con 53 especies/publicaciones.

index_O |> select(mat, SpeciesAccepted, DOI_ISBN) |>
  filter(!duplicated(paste0(pmax(SpeciesAccepted, DOI_ISBN), pmin(SpeciesAccepted, DOI_ISBN))))

A COM(P)ADRE database ('CompadreDB') object with 44 SPECIES and 53 MATRICES.

# A tibble: 53 × 3
   mat        SpeciesAccepted       DOI_ISBN                    
   <list>     <chr>                 <chr>                       
 1 <CompdrMt> Caladenia amonea      10.1071/BT08167             
 2 <CompdrMt> Caladenia argocalla   10.1071/BT08167             
 3 <CompdrMt> Caladenia clavigera   10.1071/BT08167             
 4 <CompdrMt> Caladenia elegans     10.1071/BT08167             
 5 <CompdrMt> Caladenia graniticola 10.1071/BT08167             
 6 <CompdrMt> Caladenia macroclavia 10.1071/BT08167             
 7 <CompdrMt> Caladenia oenochila   10.1071/BT08167             
 8 <CompdrMt> Caladenia rosella     10.1071/BT08167             
 9 <CompdrMt> Caladenia valida      10.1071/BT08167             
10 <CompdrMt> Epipactis atrorubens  10.1016/j.biocon.2017.04.019
# ℹ 43 more rows
…
- Todos las Lepanthes son epifitas, pero hay unas que son terrestres en la base de datos. - Todas las Caladenia son terrestres, pero hay unas que son epifitas en la base de datos.

#names(index_O) Los nombres de las variables
SPECIES_O=index_O %>% select(StudyStart, StudyEnd, SpeciesAccepted, YearPublication, Authors, DOI_ISBN, OrganismType, MatrixPopulation, mat) %>% 
  group_by(SpeciesAccepted, YearPublication, OrganismType, StudyStart, StudyEnd) %>% 
  summarize(n_populations = length(unique(MatrixPopulation))) %>% 
  arrange(SpeciesAccepted) %>% 
  mutate(StudyStart=as.numeric(StudyStart)) %>% 
  mutate(StudyEnd=as.numeric(StudyEnd)) %>% 
  drop_na(StudyStart, StudyEnd)

SPECIES_O

# A tibble: 54 × 6
# Groups:   SpeciesAccepted, YearPublication, OrganismType, StudyStart [54]
   SpeciesAccepted       YearPublication OrganismType StudyStart StudyEnd
   <chr>                 <chr>           <chr>             <dbl>    <dbl>
 1 Aspasia principissa   2006            Epiphyte           1997     2004
 2 Brassavola cucullata  2020            Epiphyte           2009     2014
 3 Broughtonia cubensis  2015            Epiphyte           2006     2010
 4 Caladenia amonea      2009            Epiphyte           1996     2007
 5 Caladenia argocalla   2009            Epiphyte           1996     2007
 6 Caladenia clavigera   2009            Epiphyte           1996     2007
 7 Caladenia elegans     2009            Epiphyte           1996     2007
 8 Caladenia graniticola 2009            Epiphyte           1996     2007
 9 Caladenia macroclavia 2009            Epiphyte           1996     2007
10 Caladenia oenochila   2009            Epiphyte           1996     2007
# ℹ 44 more rows
# ℹ 1 more variable: n_populations <int>
…
Usando la función cdb_flag se puede evaluar todas las opciones en la base de datos de COMPADRE.

Usando la función cdb_flag se identifica problemas potenciales en las matrices de transición de estados de las poblaciones. Esa función añade una fila por opciones en la matriz. Nota que para cada prueba anterior crea una columna con TRUE o FALSE para cada matriz en la base de datos.

#Orchids_New=as_cdb(index)
#compadre$mat[index]

Compadre_flagged <- cdb_flag(index_O) # Evaluación de todas las opciones en la base de datos de COMPADRE

Compadre_flagged %>% select(mat, SpeciesAccepted, starts_with("check"))

A COM(P)ADRE database ('CompadreDB') object with 46 SPECIES and 647 MATRICES.

# A tibble: 647 × 16
   mat        SpeciesAccepted       check_NA_A check_NA_U check_NA_F check_NA_C
   <list>     <chr>                 <lgl>      <lgl>      <lgl>      <lgl>     
 1 <CompdrMt> Caladenia amonea      FALSE      FALSE      FALSE      FALSE     
 2 <CompdrMt> Caladenia argocalla   FALSE      FALSE      FALSE      FALSE     
 3 <CompdrMt> Caladenia clavigera   FALSE      FALSE      FALSE      FALSE     
 4 <CompdrMt> Caladenia elegans     FALSE      FALSE      FALSE      FALSE     
 5 <CompdrMt> Caladenia graniticola FALSE      FALSE      FALSE      FALSE     
 6 <CompdrMt> Caladenia macroclavia FALSE      FALSE      FALSE      FALSE     
 7 <CompdrMt> Caladenia oenochila   FALSE      FALSE      FALSE      FALSE     
 8 <CompdrMt> Caladenia rosella     FALSE      FALSE      FALSE      FALSE     
 9 <CompdrMt> Caladenia valida      FALSE      FALSE      FALSE      FALSE     
10 <CompdrMt> Epipactis atrorubens  FALSE      FALSE      FALSE      FALSE     
# ℹ 637 more rows
# ℹ 10 more variables: check_zero_U <lgl>, check_zero_F <lgl>,
#   check_zero_C <lgl>, check_zero_U_colsum <lgl>, check_singular_U <lgl>,
#   check_component_sum <lgl>, check_ergodic <lgl>, check_irreducible <lgl>,
#   check_primitive <lgl>, check_surv_gte_1 <lgl>

Ergodicidad e Irreducibilidad

En los siguientes scripts se filtra para las matrices con ciertas condiciones para evaluar si las matrices son ergódicas e irreducibles. Notas las matrices que son ergódica son irreducibles, pero no todas las matrices irreducibles son ergódicas. Evalué la cantidad de filas en cada caso.

Mat_ergodic <- subset(Compadre_flagged, check_NA_A == FALSE & check_ergodic == TRUE) # para evaluar si las matrices son ergódicas
Mat_ergodic 

A COM(P)ADRE database ('CompadreDB') object with 45 SPECIES and 484 MATRICES.

# A tibble: 484 × 73
   mat        MatrixID SpeciesAuthor   SpeciesAccepted CommonName Kingdom Phylum
   <list>        <int> <chr>           <chr>           <chr>      <chr>   <chr> 
 1 <CompdrMt>   238285 Caladenia_amon… Caladenia amon… <NA>       Plantae Trach…
 2 <CompdrMt>   238286 Caladenia_argo… Caladenia argo… <NA>       Plantae Trach…
 3 <CompdrMt>   238287 Caladenia_clav… Caladenia clav… <NA>       Plantae Trach…
 4 <CompdrMt>   238288 Caladenia_eleg… Caladenia eleg… <NA>       Plantae Trach…
 5 <CompdrMt>   238289 Caladenia_gran… Caladenia gran… <NA>       Plantae Trach…
 6 <CompdrMt>   238290 Caladenia_macr… Caladenia macr… <NA>       Plantae Trach…
 7 <CompdrMt>   238291 Caladenia_oeno… Caladenia oeno… <NA>       Plantae Trach…
 8 <CompdrMt>   238292 Caladenia_rose… Caladenia rose… <NA>       Plantae Trach…
 9 <CompdrMt>   238293 Caladenia_vali… Caladenia vali… <NA>       Plantae Trach…
10 <CompdrMt>   238565 Epipactis_atro… Epipactis atro… Darkred h… Plantae Trach…
# ℹ 474 more rows
# ℹ 66 more variables: Class <chr>, Order <chr>, Family <chr>, Genus <chr>,
#   Species <chr>, Infraspecies <chr>, InfraspeciesType <chr>,
#   OrganismType <chr>, DicotMonoc <chr>, AngioGymno <chr>, Authors <chr>,
#   Journal <chr>, SourceType <chr>, OtherType <chr>, YearPublication <chr>,
#   DOI_ISBN <chr>, AdditionalSource <chr>, StudyDuration <dbl>,
#   StudyStart <chr>, StudyEnd <chr>, ProjectionInterval <chr>, …

Mat_irred <- subset(Compadre_flagged, check_NA_A == FALSE & check_irreducible == TRUE) # para evaluar si las matrices son irreducibles
Mat_irred

A COM(P)ADRE database ('CompadreDB') object with 43 SPECIES and 360 MATRICES.

# A tibble: 360 × 73
   mat        MatrixID SpeciesAuthor   SpeciesAccepted CommonName Kingdom Phylum
   <list>        <int> <chr>           <chr>           <chr>      <chr>   <chr> 
 1 <CompdrMt>   238285 Caladenia_amon… Caladenia amon… <NA>       Plantae Trach…
 2 <CompdrMt>   238286 Caladenia_argo… Caladenia argo… <NA>       Plantae Trach…
 3 <CompdrMt>   238287 Caladenia_clav… Caladenia clav… <NA>       Plantae Trach…
 4 <CompdrMt>   238288 Caladenia_eleg… Caladenia eleg… <NA>       Plantae Trach…
 5 <CompdrMt>   238289 Caladenia_gran… Caladenia gran… <NA>       Plantae Trach…
 6 <CompdrMt>   238290 Caladenia_macr… Caladenia macr… <NA>       Plantae Trach…
 7 <CompdrMt>   238291 Caladenia_oeno… Caladenia oeno… <NA>       Plantae Trach…
 8 <CompdrMt>   238292 Caladenia_rose… Caladenia rose… <NA>       Plantae Trach…
 9 <CompdrMt>   238293 Caladenia_vali… Caladenia vali… <NA>       Plantae Trach…
10 <CompdrMt>   238565 Epipactis_atro… Epipactis atro… Darkred h… Plantae Trach…
# ℹ 350 more rows
# ℹ 66 more variables: Class <chr>, Order <chr>, Family <chr>, Genus <chr>,
#   Species <chr>, Infraspecies <chr>, InfraspeciesType <chr>,
#   OrganismType <chr>, DicotMonoc <chr>, AngioGymno <chr>, Authors <chr>,
#   Journal <chr>, SourceType <chr>, OtherType <chr>, YearPublication <chr>,
#   DOI_ISBN <chr>, AdditionalSource <chr>, StudyDuration <dbl>,
#   StudyStart <chr>, StudyEnd <chr>, ProjectionInterval <chr>, …

Mat_erg_irred <- subset(Compadre_flagged, check_NA_A == FALSE & check_irreducible == TRUE & check_ergodic == TRUE) # para evaluar si las matrices son ergódicas e irreducibles al mismo tiempo
Mat_erg_irred 

A COM(P)ADRE database ('CompadreDB') object with 43 SPECIES and 360 MATRICES.

# A tibble: 360 × 73
   mat        MatrixID SpeciesAuthor   SpeciesAccepted CommonName Kingdom Phylum
   <list>        <int> <chr>           <chr>           <chr>      <chr>   <chr> 
 1 <CompdrMt>   238285 Caladenia_amon… Caladenia amon… <NA>       Plantae Trach…
 2 <CompdrMt>   238286 Caladenia_argo… Caladenia argo… <NA>       Plantae Trach…
 3 <CompdrMt>   238287 Caladenia_clav… Caladenia clav… <NA>       Plantae Trach…
 4 <CompdrMt>   238288 Caladenia_eleg… Caladenia eleg… <NA>       Plantae Trach…
 5 <CompdrMt>   238289 Caladenia_gran… Caladenia gran… <NA>       Plantae Trach…
 6 <CompdrMt>   238290 Caladenia_macr… Caladenia macr… <NA>       Plantae Trach…
 7 <CompdrMt>   238291 Caladenia_oeno… Caladenia oeno… <NA>       Plantae Trach…
 8 <CompdrMt>   238292 Caladenia_rose… Caladenia rose… <NA>       Plantae Trach…
 9 <CompdrMt>   238293 Caladenia_vali… Caladenia vali… <NA>       Plantae Trach…
10 <CompdrMt>   238565 Epipactis_atro… Epipactis atro… Darkred h… Plantae Trach…
# ℹ 350 more rows
# ℹ 66 more variables: Class <chr>, Order <chr>, Family <chr>, Genus <chr>,
#   Species <chr>, Infraspecies <chr>, InfraspeciesType <chr>,
#   OrganismType <chr>, DicotMonoc <chr>, AngioGymno <chr>, Authors <chr>,
#   Journal <chr>, SourceType <chr>, OtherType <chr>, YearPublication <chr>,
#   DOI_ISBN <chr>, AdditionalSource <chr>, StudyDuration <dbl>,
#   StudyStart <chr>, StudyEnd <chr>, ProjectionInterval <chr>, …
…
